<svg xmlns="http://www.w3.org/2000/svg" viewBox="-61.3 -85.8 368.6 512">
  <path d="M-41.1 168.5v186.8c0 39.1 31.7 70.9 70.9 70.9h186c39.1 0 70.9-31.7 70.9-70.9V168.5v-50.9H-40.1s-1 11.7-1 50.9zM195.3-41.8v-30c0-7.7-6.3-14-14-14H64.7c-7.7 0-14 6.3-14 14v30c0 7.7-6.3 14-14 14h-84c-7.7 0-14 6.3-14 14v67c0 7.7 6.3 14 14 14h340.6c7.7 0 14-6.3 14-14v-67c0-7.7-6.3-14-14-14h-84c-7.7 0-14-6.3-14-14zm-44 14H94.7c-7.7 0-14-6.3-14-14s6.3-14 14-14h56.7c7.7 0 14 6.3 14 14-.1 7.7-6.3 14-14.1 14z"/>
</svg>
