<svg height="512" viewBox="0 0 60 60" width="512" xmlns="http://www.w3.org/2000/svg">
    <path d="M55 0H13a5 5 0 00-5 5v43H2a2 2 0 00-2 2v5a5 5 0 005 5h42a5 5 0 005-5V12h6a2 2 0 002-2V5a5 5 0 00-5-5zM9 58H5a3 3 0 01-3-3v-5h40v5c0 1.08.35 2.14 1 3zm41-3a3 3 0 01-6 0v-5a2 2 0 00-2-2H10V5a3 3 0 013-3h38.03A4.95 4.95 0 0050 5zm8-45h-6V5a3 3 0 016 0z"/>
    <path d="M22 5a9 9 0 100 18 9 9 0 000-18zm0 16a7 7 0 110-14 7 7 0 010 14zM22 27a9 9 0 100 18 9 9 0 000-18zm0 16a7 7 0 110-14 7 7 0 010 14z"/>
    <circle cx="18" cy="13" r="1"/>
    <circle cx="26" cy="13" r="1"/>
    <path d="M24.49 15.13a1 1 0 00-1.36.38.72.72 0 01-.2.21c-.12.09-.25.16-.39.2-.35.1-.73.1-1.08 0a1.37 1.37 0 01-.4-.2.73.73 0 01-.19-.2 1 1 0 10-1.74.97c.18.32.43.6.73.83a3.82 3.82 0 003.29.5c.35-.1.69-.28.99-.5.3-.22.55-.5.73-.83a1 1 0 00-.38-1.36z"/>
    <circle cx="18" cy="35" r="1"/>
    <circle cx="26" cy="35" r="1"/>
    <path d="M24.14 37.68a3.84 3.84 0 00-3.29-.5c-.35.1-.69.28-.99.5-.3.22-.55.5-.73.83a1 1 0 101.74.98.72.72 0 01.2-.21c.12-.09.25-.16.39-.2.35-.1.73-.1 1.08 0 .14.04.27.11.4.2.07.05.14.13.19.2a1 1 0 101.74-.97c-.18-.32-.43-.6-.73-.83zM45 15a1 1 0 00-1 1v2h-8v-8h6a1 1 0 000-2h-6a2 2 0 00-2 2v8c0 1.1.9 2 2 2h8a2 2 0 002-2v-2a1 1 0 00-1-1zM44 30h-8a2 2 0 00-2 2v8c0 1.1.9 2 2 2h8a2 2 0 002-2v-8a2 2 0 00-2-2zm-8 10v-8h8v8z"/>
    <path d="M46.3 8.3L41 13.58l-1.3-1.3a1 1 0 00-1.4 1.42l2 2a1 1 0 001.4 0l6-6a1 1 0 00-1.4-1.42z"/>
</svg>
