<svg xmlns="http://www.w3.org/2000/svg" width="512" height="512" viewBox="0 0 512 512">
  <path d="M356.14 88H156.19a10 10 0 00-10 10v72a10 10 0 0010 10h199.95a10 10 0 0010-10V98a10 10 0 00-10-10zm-10 72H166.19v-52h179.95v52zM156.14 236h199.95a10 10 0 000-20H156.14a10 10 0 000 20zM356.14 272h-.11a10 10 0 000 20h.1a10 10 0 000-20zM316.14 272h-160a10 10 0 000 20h160a10 10 0 000-20z"/>
  <path d="M510.7 351.08l-64.92-114.87a10 10 0 00-8.7-5.08H422V70c0-16.54-13.46-30-30-30h-2V30c0-16.54-13.46-30-30-30H152c-16.54 0-30 13.46-30 30v10h-2c-16.54 0-30 13.46-30 30v161.13H75.19a10 10 0 00-8.7 5.07L1.3 351.06A9.94 9.94 0 000 356v146a10 10 0 0010 10h45.83a10 10 0 000-20H20V366H216.22c4.48 17.79 20.61 31 39.77 31s35.3-13.21 39.77-31H492v126H135.83a10 10 0 000 20H502a10 10 0 0010-10V356c0-1.79-.48-3.46-1.3-4.92zM142 30c0-5.51 4.49-10 10-10h208c5.51 0 10 4.49 10 10v10H142V30zM81.01 251.13H90V346H27.17l53.84-94.87zM286.99 346a10 10 0 00-10 10c0 11.58-9.42 21-21 21s-21-9.42-21-21a10 10 0 00-10-10H110V70c0-5.51 4.48-10 10-10h272c5.51 0 10 4.49 10 10v276H287zM422 346v-94.87h9.24L484.86 346H422z"/>
  <path d="M172.98 404.17a10 10 0 00-10 10v29.66a10 10 0 0010 10H339a10 10 0 0010-10v-29.66a10 10 0 00-20 0v19.66H182.98v-19.66a10 10 0 00-10-10zM95.83 492c-2.63 0-5.21 1.07-7.07 2.93s-2.93 4.44-2.93 7.07 1.07 5.21 2.93 7.07a10.08 10.08 0 007.07 2.93 10.03 10.03 0 007.07-17.07 10.07 10.07 0 00-7.07-2.93z"/>
</svg>
